{
  "data": [
    {
      "stash": {
        "blocked": [
          "{c66e1cb2-c5d0-4ff0-bf31-6c976a44bcd9}:2.0.14",
          "{c66e1cb2-c5d0-4ff0-bf31-6c976a44bcd9}:2.0.16",
          "{f842c363-7ebb-4599-b97b-2a123a774cde}:22.4.2"
        ],
        "unblocked": []
      },
      "schema": 1657715856916,
      "key_format": "{guid}:{version}",
      "stash_time": 1657737307992,
      "id": "608bb29d-673b-4815-8b71-f9cfd88f8bb8",
      "last_modified": 1657737452355
    },
    {
      "stash": {
        "blocked": [],
        "unblocked": []
      },
      "schema": 1657629452736,
      "key_format": "{guid}:{version}",
      "stash_time": 1657715707981,
      "id": "ddc3abf4-c5d6-4eb7-8cd9-5ff590b9fe84",
      "last_modified": 1657715856852
    },
    {
      "stash": {
        "blocked": [
          "{f7b3ff52-1a52-47d3-a119-6f7ec728e0e1}:2.0.14"
        ],
        "unblocked": []
      },
      "schema": 1657586251537,
      "key_format": "{guid}:{version}",
      "stash_time": 1657629307652,
      "id": "f74da069-16fd-411c-b66b-28fde769fdaf",
      "last_modified": 1657629452673
    },
    {
      "stash": {
        "blocked": [
          "{dce3e903-0b51-4d70-912a-b525ffa6af37}:1.0.0"
        ],
        "unblocked": []
      },
      "schema": 1657543054401,
      "key_format": "{guid}:{version}",
      "stash_time": 1657586107623,
      "id": "da8f73c0-b29a-48b5-ba08-f5492ad6259e",
      "last_modified": 1657586251479
    },
    {
      "stash": {
        "blocked": [
          "sovetnik-yandex@yandex.ru:3.1.10.95",
          "sovetnik-yandex@yandex.ru:3.1.13.2",
          "sovetnik-yandex@yandex.ru:3.1.11.18",
          "sovetnik-yandex@yandex.ru:3.1.12.81",
          "sovetnik-yandex@yandex.ru:3.1.17.18",
          "sovetnik-yandex@yandex.ru:3.1.18.1",
          "sovetnik-yandex@yandex.ru:3.1.14.97",
          "ntp-okru@corp.mail.ru:5.1.32",
          "sovetnik-yandex@yandex.ru:3.1.9.97",
          "sovetnik-yandex@yandex.ru:3.1.15.66",
          "sovetnik-yandex@yandex.ru:3.1.15.87",
          "sovetnik-yandex@yandex.ru:3.1.15.73",
          "sovetnik-yandex@yandex.ru:3.1.13.3",
          "sovetnik-yandex@yandex.ru:3.1.13.81",
          "sovetnik-yandex@yandex.ru:3.1.17.80",
          "sovetnik-yandex@yandex.ru:3.1.17.17",
          "sovetnik-yandex@yandex.ru:3.1.14.12",
          "sovetnik-yandex@yandex.ru:3.1.16.49",
          "sovetnik-yandex@yandex.ru:3.1.12.8",
          "sovetnik-yandex@yandex.ru:3.1.13.13",
          "sovetnik-yandex@yandex.ru:3.1.14.10",
          "sovetnik-yandex@yandex.ru:3.1.10.61",
          "sovetnik-yandex@yandex.ru:3.1.11.17",
          "sovetnik-yandex@yandex.ru:3.1.8.84",
          "sovetnik-yandex@yandex.ru:3.1.8.90",
          "sovetnik-yandex@yandex.ru:3.1.11.81",
          "sovetnik-yandex@yandex.ru:3.1.13.56",
          "sovetnik-yandex@yandex.ru:3.1.13.39",
          "sovetnik-yandex@yandex.ru:3.1.13.74",
          "sovetnik-yandex@yandex.ru:3.1.12.52",
          "sovetnik-yandex@yandex.ru:3.1.15.54",
          "sovetnik-yandex@yandex.ru:3.1.8.71",
          "sovetnik-yandex@yandex.ru:3.1.16.72",
          "sovetnik-yandex@yandex.ru:3.1.18.4",
          "sovetnik-yandex@yandex.ru:3.1.9.82",
          "vb@yandex.ru:2.34.2",
          "sovetnik-yandex@yandex.ru:3.1.13.59",
          "sovetnik-yandex@yandex.ru:3.1.16.93",
          "vb@yandex.ru:2.34.4",
          "sovetnik-yandex@yandex.ru:3.1.9.74",
          "sovetnik-yandex@yandex.ru:3.1.12.55",
          "sovetnik-yandex@yandex.ru:3.1.13.70",
          "sovetnik-yandex@yandex.ru:3.1.10.47",
          "sovetnik-yandex@yandex.ru:3.1.17.61",
          "sovetnik-yandex@yandex.ru:3.1.15.18",
          "sovetnik-yandex@yandex.ru:3.1.15.80",
          "sovetnik-yandex@yandex.ru:3.1.17.84",
          "sovetnik-yandex@yandex.ru:3.1.12.3",
          "sovetnik-yandex@yandex.ru:3.1.9.89",
          "sovetnik-yandex@yandex.ru:3.1.13.85",
          "sovetnik-yandex@yandex.ru:3.1.12.4",
          "sovetnik-yandex@yandex.ru:3.1.11.73",
          "sovetnik-yandex@yandex.ru:3.1.12.66",
          "sovetnik-yandex@yandex.ru:3.1.11.39",
          "sovetnik-yandex@yandex.ru:3.1.14.5",
          "sovetnik-yandex@yandex.ru:3.1.15.12",
          "sovetnik-yandex@yandex.ru:3.1.11.96",
          "sovetnik-yandex@yandex.ru:3.1.10.33",
          "sovetnik-yandex@yandex.ru:3.1.18.2",
          "sovetnik-yandex@yandex.ru:3.1.10.74",
          "sovetnik-yandex@yandex.ru:3.1.16.87",
          "sovetnik-yandex@yandex.ru:3.1.17.50",
          "sovetnik-yandex@yandex.ru:3.1.18.46",
          "sovetnik-yandex@yandex.ru:3.1.9.36",
          "sovetnik-yandex@yandex.ru:3.1.15.47",
          "sovetnik-yandex@yandex.ru:3.1.14.21",
          "sovetnik-yandex@yandex.ru:3.1.15.51",
          "sovetnik-yandex@yandex.ru:3.1.14.31",
          "sovetnik-yandex@yandex.ru:3.1.14.16",
          "sovetnik-yandex@yandex.ru:3.1.10.77",
          "sovetnik-yandex@yandex.ru:3.1.18.30",
          "sovetnik-yandex@yandex.ru:3.1.11.87",
          "sovetnik-yandex@yandex.ru:3.1.8.95",
          "sovetnik-yandex@yandex.ru:3.1.17.10",
          "sovetnik-yandex@yandex.ru:3.1.14.95",
          "sovetnik-yandex@yandex.ru:3.1.15.13",
          "sovetnik-yandex@yandex.ru:3.1.17.98",
          "sovetnik-yandex@yandex.ru:3.1.17.34",
          "sovetnik-yandex@yandex.ru:3.1.15.26",
          "sovetnik-yandex@yandex.ru:3.1.15.57",
          "sovetnik-yandex@yandex.ru:3.1.18.41",
          "sovetnik-yandex@yandex.ru:3.1.17.22",
          "sovetnik-yandex@yandex.ru:3.1.10.60",
          "sovetnik-yandex@yandex.ru:3.1.13.88",
          "sovetnik-yandex@yandex.ru:3.1.13.28",
          "sovetnik-yandex@yandex.ru:3.1.12.32",
          "sovetnik-yandex@yandex.ru:3.1.10.78",
          "sovetnik-yandex@yandex.ru:3.1.16.57",
          "sovetnik-yandex@yandex.ru:3.1.18.13",
          "sovetnik-yandex@yandex.ru:3.1.9.41",
          "sovetnik-yandex@yandex.ru:3.1.14.61",
          "sovetnik-yandex@yandex.ru:3.1.13.87",
          "sovetnik-yandex@yandex.ru:3.1.13.93",
          "sovetnik-yandex@yandex.ru:3.1.11.8",
          "sovetnik-yandex@yandex.ru:3.1.12.89",
          "sovetnik-yandex@yandex.ru:3.1.11.25",
          "sovetnik-yandex@yandex.ru:3.1.8.64",
          "sovetnik-yandex@yandex.ru:3.1.8.76",
          "sovetnik-yandex@yandex.ru:3.1.9.25",
          "sovetnik-yandex@yandex.ru:3.1.16.45",
          "sovetnik-yandex@yandex.ru:3.1.13.37",
          "sovetnik-yandex@yandex.ru:3.1.16.84",
          "sovetnik-yandex@yandex.ru:3.1.12.16",
          "sovetnik-yandex@yandex.ru:3.1.14.2",
          "sovetnik-yandex@yandex.ru:3.1.14.15",
          "sovetnik-yandex@yandex.ru:3.1.17.19",
          "sovetnik-yandex@yandex.ru:3.1.16.71",
          "sovetnik-yandex@yandex.ru:3.1.13.47",
          "sovetnik-yandex@yandex.ru:3.1.17.66",
          "sovetnik-yandex@yandex.ru:3.1.13.23",
          "sovetnik-yandex@yandex.ru:3.1.15.6",
          "sovetnik-yandex@yandex.ru:3.1.8.97",
          "sovetnik-yandex@yandex.ru:3.1.14.98",
          "sovetnik-yandex@yandex.ru:3.1.9.92",
          "sovetnik-yandex@yandex.ru:3.1.16.98",
          "sovetnik-yandex@yandex.ru:3.1.14.19",
          "sovetnik-yandex@yandex.ru:3.1.15.16",
          "sovetnik-yandex@yandex.ru:3.1.10.39",
          "sovetnik-yandex@yandex.ru:3.1.9.30",
          "sovetnik-yandex@yandex.ru:3.1.16.55",
          "sovetnik-yandex@yandex.ru:3.1.10.73",
          "sovetnik-yandex@yandex.ru:3.1.11.97",
          "sovetnik-yandex@yandex.ru:3.1.17.54",
          "sovetnik-yandex@yandex.ru:3.1.16.19",
          "sovetnik-yandex@yandex.ru:3.1.16.68",
          "sovetnik-yandex@yandex.ru:3.1.14.28",
          "sovetnik-yandex@yandex.ru:3.1.11.43",
          "sovetnik-yandex@yandex.ru:3.1.11.53",
          "sovetnik-yandex@yandex.ru:3.1.16.62",
          "sovetnik-yandex@yandex.ru:3.1.13.55",
          "sovetnik-yandex@yandex.ru:3.1.12.21",
          "sovetnik-yandex@yandex.ru:3.1.14.71",
          "sovetnik-yandex@yandex.ru:3.1.10.52",
          "sovetnik-yandex@yandex.ru:3.1.11.48",
          "sovetnik-yandex@yandex.ru:3.1.17.82",
          "sovetnik-yandex@yandex.ru:3.1.10.3",
          "sovetnik-yandex@yandex.ru:3.1.15.7",
          "sovetnik-yandex@yandex.ru:3.1.14.60",
          "sovetnik-yandex@yandex.ru:3.1.13.16",
          "sovetnik-yandex@yandex.ru:3.1.17.27",
          "sovetnik-yandex@yandex.ru:3.1.8.62",
          "sovetnik-yandex@yandex.ru:3.1.9.59",
          "sovetnik-yandex@yandex.ru:3.1.10.26",
          "sovetnik-yandex@yandex.ru:3.1.13.80",
          "sovetnik-yandex@yandex.ru:3.1.11.4",
          "sovetnik-yandex@yandex.ru:3.1.17.45",
          "sovetnik-yandex@yandex.ru:3.1.12.23",
          "sovetnik-yandex@yandex.ru:3.1.18.42",
          "sovetnik-yandex@yandex.ru:3.1.14.99",
          "sovetnik-yandex@yandex.ru:3.1.18.11",
          "sovetnik-yandex@yandex.ru:3.1.18.22",
          "sovetnik-yandex@yandex.ru:3.1.10.79",
          "sovetnik-yandex@yandex.ru:3.1.8.91",
          "sovetnik-yandex@yandex.ru:3.1.16.18",
          "sovetnik-yandex@yandex.ru:3.1.8.79",
          "sovetnik-yandex@yandex.ru:3.1.10.8",
          "sovetnik-yandex@yandex.ru:3.1.17.0",
          "sovetnik-yandex@yandex.ru:3.1.9.3",
          "sovetnik-yandex@yandex.ru:3.1.17.90",
          "sovetnik-yandex@yandex.ru:3.1.13.17",
          "sovetnik-yandex@yandex.ru:3.1.8.49",
          "sovetnik-yandex@yandex.ru:3.1.9.13",
          "sovetnik-yandex@yandex.ru:3.1.16.48",
          "sovetnik-yandex@yandex.ru:3.1.10.96",
          "sovetnik-yandex@yandex.ru:3.1.8.63",
          "sovetnik-yandex@yandex.ru:3.1.11.88",
          "sovetnik-yandex@yandex.ru:3.1.12.93",
          "sovetnik-yandex@yandex.ru:3.1.10.49",
          "sovetnik-yandex@yandex.ru:3.1.16.37",
          "sovetnik-yandex@yandex.ru:3.1.8.92",
          "sovetnik-yandex@yandex.ru:3.1.17.31",
          "sovetnik-yandex@yandex.ru:3.1.12.98",
          "sovetnik-yandex@yandex.ru:3.1.18.23",
          "sovetnik-yandex@yandex.ru:3.1.11.19",
          "sovetnik-yandex@yandex.ru:3.1.15.36",
          "sovetnik-yandex@yandex.ru:3.1.12.94",
          "sovetnik-yandex@yandex.ru:3.1.12.6",
          "sovetnik-yandex@yandex.ru:3.1.12.61",
          "sovetnik-yandex@yandex.ru:3.1.10.9",
          "sovetnik-yandex@yandex.ru:3.1.10.1",
          "sovetnik-yandex@yandex.ru:3.1.17.77",
          "sovetnik-yandex@yandex.ru:3.1.17.12",
          "sovetnik-yandex@yandex.ru:3.1.16.92",
          "sovetnik-yandex@yandex.ru:3.1.12.0",
          "sovetnik-yandex@yandex.ru:3.1.10.90",
          "sovetnik-yandex@yandex.ru:3.1.16.25",
          "sovetnik-yandex@yandex.ru:3.1.9.35",
          "sovetnik-yandex@yandex.ru:3.1.14.18",
          "sovetnik-yandex@yandex.ru:3.1.14.55",
          "sovetnik-yandex@yandex.ru:3.1.16.17",
          "sovetnik-yandex@yandex.ru:3.1.9.53",
          "sovetnik-yandex@yandex.ru:3.1.11.98",
          "sovetnik-yandex@yandex.ru:3.1.13.77",
          "sovetnik-yandex@yandex.ru:3.1.13.27",
          "sovetnik-yandex@yandex.ru:3.1.11.59",
          "sovetnik-yandex@yandex.ru:3.1.8.98",
          "sovetnik-yandex@yandex.ru:3.1.18.25",
          "sovetnik-yandex@yandex.ru:3.1.14.33",
          "sovetnik-yandex@yandex.ru:3.1.17.23",
          "sovetnik-yandex@yandex.ru:3.1.17.37",
          "sovetnik-yandex@yandex.ru:3.1.16.4",
          "sovetnik-yandex@yandex.ru:3.1.15.89",
          "sovetnik-yandex@yandex.ru:3.1.10.16",
          "sovetnik-yandex@yandex.ru:3.1.14.13",
          "sovetnik-yandex@yandex.ru:3.1.9.43",
          "sovetnik-yandex@yandex.ru:3.1.13.30",
          "sovetnik-yandex@yandex.ru:3.1.16.16",
          "sovetnik-yandex@yandex.ru:3.1.16.43",
          "sovetnik-yandex@yandex.ru:3.1.18.14",
          "sovetnik-yandex@yandex.ru:3.1.9.38",
          "sovetnik-yandex@yandex.ru:3.1.11.66",
          "sovetnik-yandex@yandex.ru:3.1.11.55",
          "sovetnik-yandex@yandex.ru:3.1.10.19",
          "sovetnik-yandex@yandex.ru:3.1.16.24",
          "sovetnik-yandex@yandex.ru:3.1.15.28",
          "sovetnik-yandex@yandex.ru:3.1.11.49",
          "sovetnik-yandex@yandex.ru:3.1.10.27",
          "sovetnik-yandex@yandex.ru:3.1.17.39",
          "sovetnik-yandex@yandex.ru:3.1.12.63",
          "sovetnik-yandex@yandex.ru:3.1.16.35",
          "sovetnik-yandex@yandex.ru:3.1.18.24",
          "sovetnik-yandex@yandex.ru:3.1.15.3",
          "sovetnik-yandex@yandex.ru:3.1.9.18",
          "sovetnik-yandex@yandex.ru:3.1.16.76",
          "sovetnik-yandex@yandex.ru:3.1.10.88",
          "sovetnik-yandex@yandex.ru:3.1.13.21",
          "sovetnik-yandex@yandex.ru:3.1.11.86",
          "sovetnik-yandex@yandex.ru:3.1.10.48",
          "sovetnik-yandex@yandex.ru:3.1.15.76",
          "sovetnik-yandex@yandex.ru:3.1.17.7",
          "sovetnik-yandex@yandex.ru:3.1.15.0",
          "sovetnik-yandex@yandex.ru:3.1.9.80",
          "sovetnik-yandex@yandex.ru:3.1.10.5",
          "sovetnik-yandex@yandex.ru:3.1.17.89",
          "sovetnik-yandex@yandex.ru:3.1.10.58",
          "sovetnik-yandex@yandex.ru:3.1.15.30",
          "sovetnik-yandex@yandex.ru:3.1.17.8",
          "sovetnik-yandex@yandex.ru:3.1.10.4",
          "sovetnik-yandex@yandex.ru:3.1.17.97",
          "sovetnik-yandex@yandex.ru:3.1.15.20",
          "sovetnik-yandex@yandex.ru:3.1.18.31",
          "sovetnik-yandex@yandex.ru:3.1.11.14",
          "sovetnik-yandex@yandex.ru:3.1.16.73",
          "sovetnik-yandex@yandex.ru:3.1.10.32",
          "ntp-okru@corp.mail.ru:4.1.56",
          "sovetnik-yandex@yandex.ru:3.1.16.41",
          "sovetnik-yandex@yandex.ru:3.1.17.24",
          "vb@yandex.ru:2.33.2",
          "sovetnik-yandex@yandex.ru:3.1.11.63",
          "sovetnik-yandex@yandex.ru:3.1.9.14",
          "sovetnik-yandex@yandex.ru:3.1.16.0",
          "sovetnik-yandex@yandex.ru:3.1.17.33",
          "sovetnik-yandex@yandex.ru:3.1.15.59",
          "sovetnik-yandex@yandex.ru:3.1.14.34",
          "sovetnik-yandex@yandex.ru:3.1.14.36",
          "sovetnik-yandex@yandex.ru:3.1.12.43",
          "sovetnik-yandex@yandex.ru:3.1.17.51",
          "sovetnik-yandex@yandex.ru:3.1.15.45",
          "sovetnik-yandex@yandex.ru:3.1.12.91",
          "sovetnik-yandex@yandex.ru:3.1.9.91",
          "sovetnik-yandex@yandex.ru:3.1.10.25",
          "sovetnik-yandex@yandex.ru:3.1.17.87",
          "sovetnik-yandex@yandex.ru:3.1.9.4",
          "sovetnik-yandex@yandex.ru:3.1.13.33",
          "sovetnik-yandex@yandex.ru:3.1.10.2",
          "sovetnik-yandex@yandex.ru:3.1.15.14",
          "sovetnik-yandex@yandex.ru:3.1.9.55",
          "sovetnik-yandex@yandex.ru:3.1.11.80",
          "sovetnik-yandex@yandex.ru:3.1.11.54",
          "sovetnik-yandex@yandex.ru:3.1.12.24",
          "sovetnik-yandex@yandex.ru:3.1.15.63",
          "sovetnik-yandex@yandex.ru:3.1.11.7",
          "sovetnik-yandex@yandex.ru:3.1.15.10",
          "sovetnik-yandex@yandex.ru:3.1.16.31",
          "sovetnik-yandex@yandex.ru:3.1.12.26",
          "sovetnik-yandex@yandex.ru:3.1.15.58",
          "sovetnik-yandex@yandex.ru:3.1.15.69",
          "sovetnik-yandex@yandex.ru:3.1.12.30",
          "sovetnik-yandex@yandex.ru:3.1.14.74",
          "sovetnik-yandex@yandex.ru:3.1.11.27",
          "sovetnik-yandex@yandex.ru:3.1.15.85",
          "sovetnik-yandex@yandex.ru:3.1.11.94",
          "sovetnik-yandex@yandex.ru:3.1.15.15",
          "sovetnik-yandex@yandex.ru:3.1.14.1",
          "sovetnik-yandex@yandex.ru:3.1.9.88",
          "sovetnik-yandex@yandex.ru:3.1.11.37",
          "sovetnik-yandex@yandex.ru:3.1.10.45",
          "sovetnik-yandex@yandex.ru:3.1.11.90",
          "sovetnik-yandex@yandex.ru:3.1.16.50",
          "sovetnik-yandex@yandex.ru:3.1.13.79",
          "vb@yandex.ru:2.34.8",
          "sovetnik-yandex@yandex.ru:3.1.14.49",
          "sovetnik-yandex@yandex.ru:3.1.17.36",
          "sovetnik-yandex@yandex.ru:3.1.8.68",
          "sovetnik-yandex@yandex.ru:3.1.12.36",
          "sovetnik-yandex@yandex.ru:3.1.9.56",
          "sovetnik-yandex@yandex.ru:3.1.10.43",
          "sovetnik-yandex@yandex.ru:3.1.11.47",
          "sovetnik-yandex@yandex.ru:3.1.14.50",
          "sovetnik-yandex@yandex.ru:3.1.16.67",
          "sovetnik-yandex@yandex.ru:3.1.18.8",
          "sovetnik-yandex@yandex.ru:3.1.15.5",
          "sovetnik-yandex@yandex.ru:3.1.18.33",
          "sovetnik-yandex@yandex.ru:3.1.11.50",
          "sovetnik-yandex@yandex.ru:3.1.17.40",
          "sovetnik-yandex@yandex.ru:3.1.17.59",
          "sovetnik-yandex@yandex.ru:3.1.18.28",
          "sovetnik-yandex@yandex.ru:3.1.10.31",
          "sovetnik-yandex@yandex.ru:3.1.18.10",
          "sovetnik-yandex@yandex.ru:3.1.13.49",
          "sovetnik-yandex@yandex.ru:3.1.11.71",
          "sovetnik-yandex@yandex.ru:3.1.16.5",
          "sovetnik-yandex@yandex.ru:3.1.9.32",
          "sovetnik-yandex@yandex.ru:3.1.13.54",
          "sovetnik-yandex@yandex.ru:3.1.11.51",
          "sovetnik-yandex@yandex.ru:3.1.15.65",
          "sovetnik-yandex@yandex.ru:3.1.14.38",
          "sovetnik-yandex@yandex.ru:3.1.14.9",
          "sovetnik-yandex@yandex.ru:3.1.16.47",
          "sovetnik-yandex@yandex.ru:3.1.11.21",
          "sovetnik-yandex@yandex.ru:3.1.15.42",
          "sovetnik-yandex@yandex.ru:3.1.14.72",
          "sovetnik-yandex@yandex.ru:3.1.13.99",
          "sovetnik-yandex@yandex.ru:3.1.17.48",
          "sovetnik-yandex@yandex.ru:3.1.11.6",
          "sovetnik-yandex@yandex.ru:3.1.10.11",
          "ntp-okru@corp.mail.ru:4.0.0",
          "sovetnik-yandex@yandex.ru:3.1.11.36",
          "sovetnik-yandex@yandex.ru:3.1.11.91",
          "sovetnik-yandex@yandex.ru:3.1.10.20",
          "sovetnik-yandex@yandex.ru:3.1.11.40",
          "sovetnik-yandex@yandex.ru:3.1.11.99",
          "sovetnik-yandex@yandex.ru:3.1.9.84",
          "sovetnik-yandex@yandex.ru:3.1.14.42",
          "sovetnik-yandex@yandex.ru:3.1.15.96",
          "sovetnik-yandex@yandex.ru:3.1.13.32",
          "sovetnik-yandex@yandex.ru:3.1.17.9",
          "sovetnik-yandex@yandex.ru:3.1.10.66",
          "vb@yandex.ru:2.33.0",
          "sovetnik-yandex@yandex.ru:3.1.12.7",
          "sovetnik-yandex@yandex.ru:3.1.18.26",
          "sovetnik-yandex@yandex.ru:3.1.9.58",
          "sovetnik-yandex@yandex.ru:3.1.14.8",
          "sovetnik-yandex@yandex.ru:3.1.18.58",
          "sovetnik-yandex@yandex.ru:3.1.16.91",
          "sovetnik-yandex@yandex.ru:3.1.17.52",
          "sovetnik-yandex@yandex.ru:3.1.15.46",
          "sovetnik-yandex@yandex.ru:3.1.15.88",
          "sovetnik-yandex@yandex.ru:3.1.9.39",
          "sovetnik-yandex@yandex.ru:3.1.10.7",
          "sovetnik-yandex@yandex.ru:3.1.17.14",
          "sovetnik-yandex@yandex.ru:3.1.14.40",
          "sovetnik-yandex@yandex.ru:3.1.10.10",
          "sovetnik-yandex@yandex.ru:3.1.9.7",
          "sovetnik-yandex@yandex.ru:3.1.16.64",
          "sovetnik-yandex@yandex.ru:3.1.18.3",
          "ntp-okru@corp.mail.ru:5.1.33",
          "sovetnik-yandex@yandex.ru:3.1.17.68",
          "sovetnik-yandex@yandex.ru:3.1.17.11",
          "sovetnik-yandex@yandex.ru:3.1.16.42",
          "sovetnik-yandex@yandex.ru:3.1.10.6",
          "sovetnik-yandex@yandex.ru:3.1.17.3",
          "sovetnik-yandex@yandex.ru:3.1.16.7",
          "sovetnik-yandex@yandex.ru:3.1.16.6",
          "sovetnik-yandex@yandex.ru:3.1.12.92",
          "sovetnik-yandex@yandex.ru:3.1.12.70",
          "sovetnik-yandex@yandex.ru:3.1.18.36",
          "sovetnik-yandex@yandex.ru:3.1.12.59",
          "sovetnik-yandex@yandex.ru:3.1.16.75",
          "sovetnik-yandex@yandex.ru:3.1.13.31",
          "sovetnik-yandex@yandex.ru:3.1.10.40",
          "sovetnik-yandex@yandex.ru:3.1.18.5",
          "sovetnik-yandex@yandex.ru:3.1.8.77",
          "sovetnik-yandex@yandex.ru:3.1.16.29",
          "sovetnik-yandex@yandex.ru:3.1.12.9",
          "sovetnik-yandex@yandex.ru:3.1.14.63",
          "sovetnik-yandex@yandex.ru:3.1.16.65",
          "sovetnik-yandex@yandex.ru:3.1.18.38",
          "sovetnik-yandex@yandex.ru:3.1.14.76",
          "sovetnik-yandex@yandex.ru:3.1.12.10",
          "sovetnik-yandex@yandex.ru:3.1.17.38",
          "vb@yandex.ru:2.34.5",
          "sovetnik-yandex@yandex.ru:3.1.14.7",
          "sovetnik-yandex@yandex.ru:3.1.16.86",
          "sovetnik-yandex@yandex.ru:3.1.17.86",
          "sovetnik-yandex@yandex.ru:3.1.15.44",
          "sovetnik-yandex@yandex.ru:3.1.16.28",
          "sovetnik-yandex@yandex.ru:3.1.15.68",
          "sovetnik-yandex@yandex.ru:3.1.17.30",
          "sovetnik-yandex@yandex.ru:3.1.9.71",
          "sovetnik-yandex@yandex.ru:3.1.16.83",
          "sovetnik-yandex@yandex.ru:3.1.18.53",
          "sovetnik-yandex@yandex.ru:3.1.11.78",
          "sovetnik-yandex@yandex.ru:3.1.12.58",
          "sovetnik-yandex@yandex.ru:3.1.15.32",
          "sovetnik-yandex@yandex.ru:3.1.15.17",
          "sovetnik-yandex@yandex.ru:3.1.13.36",
          "sovetnik-yandex@yandex.ru:3.1.17.56",
          "sovetnik-yandex@yandex.ru:3.1.15.23",
          "sovetnik-yandex@yandex.ru:3.1.17.96",
          "sovetnik-yandex@yandex.ru:3.1.13.25",
          "sovetnik-yandex@yandex.ru:3.1.9.62",
          "sovetnik-yandex@yandex.ru:3.1.15.43",
          "sovetnik-yandex@yandex.ru:3.1.9.47",
          "sovetnik-yandex@yandex.ru:3.1.12.49",
          "sovetnik-yandex@yandex.ru:3.1.15.19",
          "sovetnik-yandex@yandex.ru:3.1.10.98",
          "sovetnik-yandex@yandex.ru:3.1.17.99",
          "sovetnik-yandex@yandex.ru:3.1.11.44",
          "sovetnik-yandex@yandex.ru:3.1.17.29",
          "sovetnik-yandex@yandex.ru:3.1.18.59",
          "sovetnik-yandex@yandex.ru:3.1.15.9",
          "sovetnik-yandex@yandex.ru:3.1.14.75",
          "sovetnik-yandex@yandex.ru:3.1.16.2",
          "sovetnik-yandex@yandex.ru:3.1.14.73",
          "sovetnik-yandex@yandex.ru:3.1.18.6",
          "ntp-mail@corp.mail.ru:4.2.8",
          "sovetnik-yandex@yandex.ru:3.1.16.46",
          "sovetnik-yandex@yandex.ru:3.1.14.51",
          "sovetnik-yandex@yandex.ru:3.1.17.15",
          "sovetnik-yandex@yandex.ru:3.1.11.10",
          "sovetnik-yandex@yandex.ru:3.1.14.26",
          "sovetnik-yandex@yandex.ru:3.1.12.14",
          "sovetnik-yandex@yandex.ru:3.1.14.52",
          "sovetnik-yandex@yandex.ru:3.1.13.8",
          "sovetnik-yandex@yandex.ru:3.1.13.19",
          "sovetnik-yandex@yandex.ru:3.1.13.22",
          "sovetnik-yandex@yandex.ru:3.1.12.82",
          "sovetnik-yandex@yandex.ru:3.1.18.16",
          "sovetnik-yandex@yandex.ru:3.1.16.94",
          "sovetnik-yandex@yandex.ru:3.1.12.22",
          "sovetnik-yandex@yandex.ru:3.1.18.52",
          "sovetnik-yandex@yandex.ru:3.1.14.6",
          "sovetnik-yandex@yandex.ru:3.1.9.15",
          "sovetnik-yandex@yandex.ru:3.1.10.64",
          "sovetnik-yandex@yandex.ru:3.1.16.59",
          "sovetnik-yandex@yandex.ru:3.1.10.81",
          "sovetnik-yandex@yandex.ru:3.1.17.44",
          "sovetnik-yandex@yandex.ru:3.1.16.11",
          "sovetnik-yandex@yandex.ru:3.1.15.31",
          "sovetnik-yandex@yandex.ru:3.1.8.67",
          "sovetnik-yandex@yandex.ru:3.1.15.95",
          "sovetnik-yandex@yandex.ru:3.1.16.23",
          "sovetnik-yandex@yandex.ru:3.1.12.47",
          "sovetnik-yandex@yandex.ru:3.1.8.99",
          "sovetnik-yandex@yandex.ru:3.1.11.85",
          "sovetnik-yandex@yandex.ru:3.1.13.29",
          "sovetnik-yandex@yandex.ru:3.1.11.13",
          "sovetnik-yandex@yandex.ru:3.1.16.36",
          "sovetnik-yandex@yandex.ru:3.1.9.45",
          "sovetnik-yandex@yandex.ru:3.1.11.26",
          "sovetnik-yandex@yandex.ru:3.1.12.39",
          "sovetnik-yandex@yandex.ru:3.1.13.24",
          "sovetnik-yandex@yandex.ru:3.1.16.58",
          "sovetnik-yandex@yandex.ru:3.1.13.10",
          "sovetnik-yandex@yandex.ru:3.1.16.10",
          "sovetnik-yandex@yandex.ru:3.1.8.55",
          "sovetnik-yandex@yandex.ru:3.1.13.0",
          "sovetnik-yandex@yandex.ru:3.1.14.45",
          "sovetnik-yandex@yandex.ru:3.1.10.80",
          "sovetnik-yandex@yandex.ru:3.1.12.76",
          "sovetnik-yandex@yandex.ru:3.1.13.41",
          "sovetnik-yandex@yandex.ru:3.1.16.70",
          "ntp-mail@corp.mail.ru:5.1.32",
          "sovetnik-yandex@yandex.ru:3.1.11.34",
          "sovetnik-yandex@yandex.ru:3.1.8.72",
          "sovetnik-yandex@yandex.ru:3.1.8.50",
          "sovetnik-yandex@yandex.ru:3.1.16.89",
          "sovetnik-yandex@yandex.ru:3.1.16.27",
          "sovetnik-yandex@yandex.ru:3.1.15.4",
          "sovetnik-yandex@yandex.ru:3.1.13.43",
          "sovetnik-yandex@yandex.ru:3.1.14.86",
          "sovetnik-yandex@yandex.ru:3.1.12.57",
          "sovetnik-yandex@yandex.ru:3.1.18.51",
          "sovetnik-yandex@yandex.ru:3.1.10.75",
          "sovetnik-yandex@yandex.ru:3.1.17.83",
          "sovetnik-yandex@yandex.ru:3.1.17.53",
          "sovetnik-yandex@yandex.ru:3.1.15.27",
          "sovetnik-yandex@yandex.ru:3.1.10.85",
          "vb@yandex.ru:2.34.1",
          "sovetnik-yandex@yandex.ru:3.1.12.33",
          "sovetnik-yandex@yandex.ru:3.1.16.9",
          "sovetnik-yandex@yandex.ru:3.1.9.11",
          "sovetnik-yandex@yandex.ru:3.1.15.74",
          "sovetnik-yandex@yandex.ru:3.1.14.93",
          "sovetnik-yandex@yandex.ru:3.1.17.25",
          "sovetnik-yandex@yandex.ru:3.1.12.29",
          "sovetnik-yandex@yandex.ru:3.1.14.82",
          "sovetnik-yandex@yandex.ru:3.1.14.67",
          "sovetnik-yandex@yandex.ru:3.1.15.2",
          "sovetnik-yandex@yandex.ru:3.1.16.8",
          "sovetnik-yandex@yandex.ru:3.1.10.36",
          "sovetnik-yandex@yandex.ru:3.1.16.97",
          "sovetnik-yandex@yandex.ru:3.1.9.12",
          "sovetnik-yandex@yandex.ru:3.1.15.34",
          "sovetnik-yandex@yandex.ru:3.1.9.69",
          "sovetnik-yandex@yandex.ru:3.1.13.89",
          "sovetnik-yandex@yandex.ru:3.1.10.28",
          "sovetnik-yandex@yandex.ru:3.1.11.100",
          "sovetnik-yandex@yandex.ru:3.1.11.95",
          "sovetnik-yandex@yandex.ru:3.1.8.47",
          "sovetnik-yandex@yandex.ru:3.1.13.94",
          "sovetnik-yandex@yandex.ru:3.1.13.67",
          "sovetnik-yandex@yandex.ru:3.1.9.28",
          "sovetnik-yandex@yandex.ru:3.1.15.25",
          "sovetnik-yandex@yandex.ru:3.1.15.49",
          "sovetnik-yandex@yandex.ru:3.1.16.52",
          "sovetnik-yandex@yandex.ru:3.1.15.8",
          "sovetnik-yandex@yandex.ru:3.1.10.50",
          "sovetnik-yandex@yandex.ru:3.1.10.15",
          "sovetnik-yandex@yandex.ru:3.1.13.38",
          "sovetnik-yandex@yandex.ru:3.1.10.34",
          "sovetnik-yandex@yandex.ru:3.1.13.57",
          "sovetnik-yandex@yandex.ru:3.1.11.64",
          "sovetnik-yandex@yandex.ru:3.1.17.70",
          "sovetnik-yandex@yandex.ru:3.1.12.41",
          "sovetnik-yandex@yandex.ru:3.1.15.98",
          "sovetnik-yandex@yandex.ru:3.1.15.1",
          "sovetnik-yandex@yandex.ru:3.1.15.40",
          "sovetnik-yandex@yandex.ru:3.1.18.56",
          "sovetnik-yandex@yandex.ru:3.1.17.78",
          "sovetnik-yandex@yandex.ru:3.1.12.27",
          "sovetnik-yandex@yandex.ru:3.1.16.69",
          "sovetnik-yandex@yandex.ru:3.1.10.68",
          "sovetnik-yandex@yandex.ru:3.1.10.86",
          "sovetnik-yandex@yandex.ru:3.1.9.33",
          "sovetnik-yandex@yandex.ru:3.1.10.51",
          "sovetnik-yandex@yandex.ru:3.1.12.79",
          "sovetnik-yandex@yandex.ru:3.1.13.26",
          "sovetnik-yandex@yandex.ru:3.1.12.28",
          "sovetnik-yandex@yandex.ru:3.1.11.38",
          "sovetnik-yandex@yandex.ru:3.1.13.65",
          "sovetnik-yandex@yandex.ru:3.1.8.81",
          "sovetnik-yandex@yandex.ru:3.1.14.29",
          "sovetnik-yandex@yandex.ru:3.1.9.94",
          "sovetnik-yandex@yandex.ru:3.1.9.8",
          "sovetnik-yandex@yandex.ru:3.1.13.18",
          "sovetnik-yandex@yandex.ru:3.1.12.95",
          "sovetnik-yandex@yandex.ru:3.1.11.69",
          "sovetnik-yandex@yandex.ru:3.1.13.11",
          "sovetnik-yandex@yandex.ru:3.1.14.96",
          "sovetnik-yandex@yandex.ru:3.1.10.62",
          "sovetnik-yandex@yandex.ru:3.1.16.82",
          "sovetnik-yandex@yandex.ru:3.1.14.0",
          "sovetnik-yandex@yandex.ru:3.1.17.16",
          "sovetnik-yandex@yandex.ru:3.1.17.62",
          "sovetnik-yandex@yandex.ru:3.1.12.86",
          "sovetnik-yandex@yandex.ru:3.1.9.70",
          "sovetnik-yandex@yandex.ru:3.1.14.20",
          "sovetnik-yandex@yandex.ru:3.1.14.30",
          "sovetnik-yandex@yandex.ru:3.1.14.35",
          "sovetnik-yandex@yandex.ru:3.1.14.48",
          "sovetnik-yandex@yandex.ru:3.1.14.23",
          "sovetnik-yandex@yandex.ru:3.1.13.34",
          "sovetnik-yandex@yandex.ru:3.1.13.5",
          "sovetnik-yandex@yandex.ru:3.1.13.71",
          "sovetnik-yandex@yandex.ru:3.1.16.80",
          "sovetnik-yandex@yandex.ru:3.1.15.38",
          "sovetnik-yandex@yandex.ru:3.1.9.19",
          "sovetnik-yandex@yandex.ru:3.1.15.99",
          "sovetnik-yandex@yandex.ru:3.1.9.60",
          "sovetnik-yandex@yandex.ru:3.1.16.96",
          "sovetnik-yandex@yandex.ru:3.1.15.72",
          "ntp-mail@corp.mail.ru:4.0.0",
          "sovetnik-yandex@yandex.ru:3.1.12.15",
          "sovetnik-yandex@yandex.ru:3.1.14.78",
          "sovetnik-yandex@yandex.ru:3.1.17.57",
          "sovetnik-yandex@yandex.ru:3.1.13.52",
          "sovetnik-yandex@yandex.ru:3.1.14.39",
          "sovetnik-yandex@yandex.ru:3.1.16.77",
          "sovetnik-yandex@yandex.ru:3.1.11.70",
          "sovetnik-yandex@yandex.ru:3.1.8.88",
          "sovetnik-yandex@yandex.ru:3.1.17.85",
          "sovetnik-yandex@yandex.ru:3.1.14.80",
          "sovetnik-yandex@yandex.ru:3.1.12.74",
          "sovetnik-yandex@yandex.ru:3.1.9.95",
          "sovetnik-yandex@yandex.ru:3.1.12.99",
          "sovetnik-yandex@yandex.ru:3.1.11.12",
          "sovetnik-yandex@yandex.ru:3.1.16.44",
          "sovetnik-yandex@yandex.ru:3.1.11.45",
          "sovetnik-yandex@yandex.ru:3.1.8.73",
          "sovetnik-yandex@yandex.ru:3.1.9.40",
          "sovetnik-yandex@yandex.ru:3.1.16.85",
          "sovetnik-yandex@yandex.ru:3.1.17.71",
          "sovetnik-yandex@yandex.ru:3.1.16.61",
          "sovetnik-yandex@yandex.ru:3.1.11.89",
          "sovetnik-yandex@yandex.ru:3.1.10.59",
          "sovetnik-yandex@yandex.ru:3.1.18.50",
          "sovetnik-yandex@yandex.ru:3.1.10.0",
          "sovetnik-yandex@yandex.ru:3.1.11.75",
          "sovetnik-yandex@yandex.ru:3.1.13.69",
          "sovetnik-yandex@yandex.ru:3.1.12.38",
          "sovetnik-yandex@yandex.ru:3.1.9.1",
          "sovetnik-yandex@yandex.ru:3.1.14.32",
          "sovetnik-yandex@yandex.ru:3.1.17.65",
          "sovetnik-yandex@yandex.ru:3.1.9.65",
          "sovetnik-yandex@yandex.ru:3.1.13.73",
          "sovetnik-yandex@yandex.ru:3.1.9.49",
          "sovetnik-yandex@yandex.ru:3.1.12.97",
          "sovetnik-yandex@yandex.ru:3.1.14.88",
          "sovetnik-yandex@yandex.ru:3.1.9.48",
          "sovetnik-yandex@yandex.ru:3.1.12.65",
          "sovetnik-yandex@yandex.ru:3.1.9.67",
          "sovetnik-yandex@yandex.ru:3.1.8.93",
          "sovetnik-yandex@yandex.ru:3.1.17.75",
          "sovetnik-yandex@yandex.ru:3.1.9.93",
          "sovetnik-yandex@yandex.ru:3.1.8.82",
          "sovetnik-yandex@yandex.ru:3.1.9.10",
          "sovetnik-yandex@yandex.ru:3.1.17.94",
          "sovetnik-yandex@yandex.ru:3.1.16.30",
          "sovetnik-yandex@yandex.ru:3.1.15.93",
          "sovetnik-yandex@yandex.ru:3.1.8.53",
          "sovetnik-yandex@yandex.ru:3.1.15.75",
          "sovetnik-yandex@yandex.ru:3.1.11.46",
          "sovetnik-yandex@yandex.ru:3.1.12.80",
          "sovetnik-yandex@yandex.ru:3.1.17.64",
          "sovetnik-yandex@yandex.ru:3.1.17.42",
          "sovetnik-yandex@yandex.ru:3.1.16.60",
          "sovetnik-yandex@yandex.ru:3.1.13.72",
          "sovetnik-yandex@yandex.ru:3.1.17.43",
          "sovetnik-yandex@yandex.ru:3.1.8.46",
          "sovetnik-yandex@yandex.ru:3.1.18.43",
          "sovetnik-yandex@yandex.ru:3.1.12.69",
          "sovetnik-yandex@yandex.ru:3.1.12.96",
          "sovetnik-yandex@yandex.ru:3.1.12.53",
          "sovetnik-yandex@yandex.ru:3.1.10.91",
          "sovetnik-yandex@yandex.ru:3.1.10.54",
          "sovetnik-yandex@yandex.ru:3.1.9.26",
          "sovetnik-yandex@yandex.ru:3.1.8.94",
          "sovetnik-yandex@yandex.ru:3.1.14.58",
          "sovetnik-yandex@yandex.ru:3.1.16.3",
          "sovetnik-yandex@yandex.ru:3.1.14.90",
          "sovetnik-yandex@yandex.ru:3.1.9.44",
          "sovetnik-yandex@yandex.ru:3.1.13.64",
          "sovetnik-yandex@yandex.ru:3.1.13.82",
          "sovetnik-yandex@yandex.ru:3.1.13.63",
          "sovetnik-yandex@yandex.ru:3.1.13.76",
          "vb@yandex.ru:2.33.1",
          "sovetnik-yandex@yandex.ru:3.1.17.1",
          "sovetnik-yandex@yandex.ru:3.1.11.68",
          "sovetnik-yandex@yandex.ru:3.1.12.77",
          "sovetnik-yandex@yandex.ru:3.1.9.21",
          "sovetnik-yandex@yandex.ru:3.1.17.4",
          "sovetnik-yandex@yandex.ru:3.1.14.14",
          "sovetnik-yandex@yandex.ru:3.1.15.39",
          "sovetnik-yandex@yandex.ru:3.1.8.78",
          "sovetnik-yandex@yandex.ru:3.1.10.17",
          "sovetnik-yandex@yandex.ru:3.1.10.38",
          "sovetnik-yandex@yandex.ru:3.1.12.42",
          "sovetnik-yandex@yandex.ru:3.1.17.67",
          "sovetnik-yandex@yandex.ru:3.1.13.83",
          "sovetnik-yandex@yandex.ru:3.1.12.13",
          "sovetnik-yandex@yandex.ru:3.1.12.60",
          "sovetnik-yandex@yandex.ru:3.1.15.61",
          "sovetnik-yandex@yandex.ru:3.1.9.31",
          "sovetnik-yandex@yandex.ru:3.1.15.97",
          "sovetnik-yandex@yandex.ru:3.1.10.42",
          "sovetnik-yandex@yandex.ru:3.1.16.39",
          "sovetnik-yandex@yandex.ru:3.1.13.50",
          "sovetnik-yandex@yandex.ru:3.1.18.19",
          "sovetnik-yandex@yandex.ru:3.1.17.81",
          "sovetnik-yandex@yandex.ru:3.1.12.17",
          "sovetnik-yandex@yandex.ru:3.1.17.91",
          "sovetnik-yandex@yandex.ru:3.1.18.44",
          "sovetnik-yandex@yandex.ru:3.1.16.22",
          "sovetnik-yandex@yandex.ru:3.1.11.41",
          "sovetnik-yandex@yandex.ru:3.1.12.1",
          "sovetnik-yandex@yandex.ru:3.1.16.66",
          "sovetnik-yandex@yandex.ru:3.1.17.26",
          "sovetnik-yandex@yandex.ru:3.1.13.92",
          "sovetnik-yandex@yandex.ru:3.1.13.90",
          "sovetnik-yandex@yandex.ru:3.1.16.34",
          "sovetnik-yandex@yandex.ru:3.1.11.60",
          "sovetnik-yandex@yandex.ru:3.1.9.50",
          "sovetnik-yandex@yandex.ru:3.1.15.21",
          "sovetnik-yandex@yandex.ru:3.1.14.54",
          "sovetnik-yandex@yandex.ru:3.1.11.28",
          "sovetnik-yandex@yandex.ru:3.1.10.41",
          "sovetnik-yandex@yandex.ru:3.1.9.86",
          "sovetnik-yandex@yandex.ru:3.1.16.32",
          "sovetnik-yandex@yandex.ru:3.1.9.68",
          "sovetnik-yandex@yandex.ru:3.1.14.43",
          "sovetnik-yandex@yandex.ru:3.1.10.46",
          "sovetnik-yandex@yandex.ru:3.1.13.14",
          "sovetnik-yandex@yandex.ru:3.1.11.42",
          "sovetnik-yandex@yandex.ru:3.1.12.84",
          "sovetnik-yandex@yandex.ru:3.1.9.17",
          "sovetnik-yandex@yandex.ru:3.1.17.73",
          "sovetnik-yandex@yandex.ru:3.1.9.64",
          "sovetnik-yandex@yandex.ru:3.1.9.20",
          "sovetnik-yandex@yandex.ru:3.1.9.73",
          "sovetnik-yandex@yandex.ru:3.1.8.61",
          "sovetnik-yandex@yandex.ru:3.1.14.59",
          "sovetnik-yandex@yandex.ru:3.1.8.87",
          "sovetnik-yandex@yandex.ru:3.1.18.39",
          "sovetnik-yandex@yandex.ru:3.1.17.58",
          "sovetnik-yandex@yandex.ru:3.1.14.11",
          "sovetnik-yandex@yandex.ru:3.1.18.21",
          "sovetnik-yandex@yandex.ru:3.1.17.28",
          "sovetnik-yandex@yandex.ru:3.1.14.70",
          "ntp-okru@corp.mail.ru:4.2.8",
          "sovetnik-yandex@yandex.ru:3.1.9.75",
          "sovetnik-yandex@yandex.ru:3.1.18.55",
          "sovetnik-yandex@yandex.ru:3.1.16.20",
          "sovetnik-yandex@yandex.ru:3.1.13.48",
          "sovetnik-yandex@yandex.ru:3.1.8.70",
          "sovetnik-yandex@yandex.ru:3.1.17.21",
          "sovetnik-yandex@yandex.ru:3.1.11.77",
          "sovetnik-yandex@yandex.ru:3.1.11.67",
          "sovetnik-yandex@yandex.ru:3.1.9.6",
          "sovetnik-yandex@yandex.ru:3.1.12.2",
          "sovetnik-yandex@yandex.ru:3.1.17.76",
          "sovetnik-yandex@yandex.ru:3.1.8.89",
          "sovetnik-yandex@yandex.ru:3.1.10.56",
          "sovetnik-yandex@yandex.ru:3.1.14.25",
          "sovetnik-yandex@yandex.ru:3.1.13.12",
          "sovetnik-yandex@yandex.ru:3.1.9.34",
          "sovetnik-yandex@yandex.ru:3.1.9.22",
          "sovetnik-yandex@yandex.ru:3.1.12.78",
          "sovetnik-yandex@yandex.ru:3.1.12.48",
          "sovetnik-yandex@yandex.ru:3.1.13.95",
          "sovetnik-yandex@yandex.ru:3.1.13.62",
          "sovetnik-yandex@yandex.ru:3.1.17.88",
          "sovetnik-yandex@yandex.ru:3.1.17.72",
          "sovetnik-yandex@yandex.ru:3.1.14.44",
          "sovetnik-yandex@yandex.ru:3.1.9.99",
          "sovetnik-yandex@yandex.ru:3.1.12.51",
          "sovetnik-yandex@yandex.ru:3.1.9.42",
          "sovetnik-yandex@yandex.ru:3.1.18.27",
          "sovetnik-yandex@yandex.ru:3.1.8.58",
          "sovetnik-yandex@yandex.ru:3.1.10.82",
          "sovetnik-yandex@yandex.ru:3.1.13.20",
          "sovetnik-yandex@yandex.ru:3.1.15.11",
          "sovetnik-yandex@yandex.ru:3.1.17.13",
          "sovetnik-yandex@yandex.ru:3.1.15.41",
          "sovetnik-yandex@yandex.ru:3.1.10.94",
          "sovetnik-yandex@yandex.ru:3.1.16.14",
          "sovetnik-yandex@yandex.ru:3.1.18.35",
          "sovetnik-yandex@yandex.ru:3.1.15.60",
          "sovetnik-yandex@yandex.ru:3.1.9.16",
          "sovetnik-yandex@yandex.ru:3.1.12.72",
          "sovetnik-yandex@yandex.ru:3.1.13.98",
          "sovetnik-yandex@yandex.ru:3.1.11.52",
          "sovetnik-yandex@yandex.ru:3.1.10.65",
          "sovetnik-yandex@yandex.ru:3.1.18.32",
          "sovetnik-yandex@yandex.ru:3.1.12.73",
          "sovetnik-yandex@yandex.ru:3.1.14.79",
          "sovetnik-yandex@yandex.ru:3.1.16.78",
          "sovetnik-yandex@yandex.ru:3.1.10.14",
          "sovetnik-yandex@yandex.ru:3.1.11.76",
          "sovetnik-yandex@yandex.ru:3.1.9.81",
          "sovetnik-yandex@yandex.ru:3.1.15.56",
          "sovetnik-yandex@yandex.ru:3.1.17.69",
          "sovetnik-yandex@yandex.ru:3.1.13.84",
          "sovetnik-yandex@yandex.ru:3.1.17.79",
          "sovetnik-yandex@yandex.ru:3.1.11.58",
          "sovetnik-yandex@yandex.ru:3.1.16.1",
          "sovetnik-yandex@yandex.ru:3.1.11.31",
          "sovetnik-yandex@yandex.ru:3.1.8.48",
          "sovetnik-yandex@yandex.ru:3.1.8.85",
          "sovetnik-yandex@yandex.ru:3.1.9.2",
          "sovetnik-yandex@yandex.ru:3.1.15.82",
          "sovetnik-yandex@yandex.ru:3.1.12.34",
          "sovetnik-yandex@yandex.ru:3.1.12.85",
          "sovetnik-yandex@yandex.ru:3.1.11.61",
          "sovetnik-yandex@yandex.ru:3.1.13.96",
          "sovetnik-yandex@yandex.ru:3.1.12.31",
          "sovetnik-yandex@yandex.ru:3.1.9.87",
          "sovetnik-yandex@yandex.ru:3.1.14.27",
          "sovetnik-yandex@yandex.ru:3.1.13.86",
          "sovetnik-yandex@yandex.ru:3.1.17.46",
          "sovetnik-yandex@yandex.ru:3.1.9.9",
          "sovetnik-yandex@yandex.ru:3.1.15.84",
          "sovetnik-yandex@yandex.ru:3.1.14.65",
          "sovetnik-yandex@yandex.ru:3.1.18.18",
          "sovetnik-yandex@yandex.ru:3.1.8.54",
          "sovetnik-yandex@yandex.ru:3.1.15.33",
          "sovetnik-yandex@yandex.ru:3.1.11.56",
          "sovetnik-yandex@yandex.ru:3.1.16.95",
          "sovetnik-yandex@yandex.ru:3.1.13.42",
          "sovetnik-yandex@yandex.ru:3.1.18.29",
          "sovetnik-yandex@yandex.ru:3.1.14.91",
          "sovetnik-yandex@yandex.ru:3.1.18.49",
          "sovetnik-yandex@yandex.ru:3.1.10.57",
          "sovetnik-yandex@yandex.ru:3.1.9.61",
          "sovetnik-yandex@yandex.ru:3.1.10.63",
          "sovetnik-yandex@yandex.ru:3.1.13.6",
          "sovetnik-yandex@yandex.ru:3.1.8.69",
          "sovetnik-yandex@yandex.ru:3.1.17.20",
          "sovetnik-yandex@yandex.ru:3.1.10.69",
          "sovetnik-yandex@yandex.ru:3.1.18.54",
          "sovetnik-yandex@yandex.ru:3.1.12.64",
          "sovetnik-yandex@yandex.ru:3.1.10.89",
          "sovetnik-yandex@yandex.ru:3.1.12.50",
          "sovetnik-yandex@yandex.ru:3.1.12.56",
          "sovetnik-yandex@yandex.ru:3.1.13.7",
          "sovetnik-yandex@yandex.ru:3.1.18.12",
          "sovetnik-yandex@yandex.ru:3.1.10.87",
          "sovetnik-yandex@yandex.ru:3.1.15.53",
          "sovetnik-yandex@yandex.ru:3.1.11.5",
          "sovetnik-yandex@yandex.ru:3.1.17.49",
          "sovetnik-yandex@yandex.ru:3.1.13.1",
          "sovetnik-yandex@yandex.ru:3.1.16.53",
          "sovetnik-yandex@yandex.ru:3.1.8.75",
          "sovetnik-yandex@yandex.ru:3.1.9.57",
          "sovetnik-yandex@yandex.ru:3.1.15.83",
          "sovetnik-yandex@yandex.ru:3.1.9.78",
          "sovetnik-yandex@yandex.ru:3.1.10.13",
          "sovetnik-yandex@yandex.ru:3.1.15.55",
          "sovetnik-yandex@yandex.ru:3.1.10.24",
          "sovetnik-yandex@yandex.ru:3.1.18.0",
          "sovetnik-yandex@yandex.ru:3.1.9.79",
          "sovetnik-yandex@yandex.ru:3.1.8.52",
          "sovetnik-yandex@yandex.ru:3.1.11.11",
          "sovetnik-yandex@yandex.ru:3.1.12.90",
          "sovetnik-yandex@yandex.ru:3.1.16.51",
          "sovetnik-yandex@yandex.ru:3.1.10.23",
          "sovetnik-yandex@yandex.ru:3.1.9.51",
          "sovetnik-yandex@yandex.ru:3.1.14.62",
          "sovetnik-yandex@yandex.ru:3.1.17.6",
          "sovetnik-yandex@yandex.ru:3.1.8.86",
          "sovetnik-yandex@yandex.ru:3.1.9.90",
          "sovetnik-yandex@yandex.ru:3.1.12.37",
          "sovetnik-yandex@yandex.ru:3.1.15.37",
          "sovetnik-yandex@yandex.ru:3.1.15.71",
          "sovetnik-yandex@yandex.ru:3.1.16.88",
          "sovetnik-yandex@yandex.ru:3.1.8.51",
          "sovetnik-yandex@yandex.ru:3.1.13.4",
          "sovetnik-yandex@yandex.ru:3.1.8.65",
          "sovetnik-yandex@yandex.ru:3.1.14.85",
          "sovetnik-yandex@yandex.ru:3.1.16.79",
          "sovetnik-yandex@yandex.ru:3.1.15.48",
          "sovetnik-yandex@yandex.ru:3.1.13.46",
          "sovetnik-yandex@yandex.ru:3.1.8.45",
          "sovetnik-yandex@yandex.ru:3.1.11.9",
          "sovetnik-yandex@yandex.ru:3.1.10.72",
          "sovetnik-yandex@yandex.ru:3.1.8.66",
          "sovetnik-yandex@yandex.ru:3.1.15.90",
          "sovetnik-yandex@yandex.ru:3.1.13.51",
          "sovetnik-yandex@yandex.ru:3.1.15.77",
          "sovetnik-yandex@yandex.ru:3.1.12.35",
          "sovetnik-yandex@yandex.ru:3.1.14.94",
          "sovetnik-yandex@yandex.ru:3.1.8.59",
          "sovetnik-yandex@yandex.ru:3.1.12.54",
          "sovetnik-yandex@yandex.ru:3.1.12.11",
          "sovetnik-yandex@yandex.ru:3.1.9.5",
          "sovetnik-yandex@yandex.ru:3.1.16.54",
          "sovetnik-yandex@yandex.ru:3.1.10.21",
          "sovetnik-yandex@yandex.ru:3.1.10.76",
          "sovetnik-yandex@yandex.ru:3.1.15.64",
          "sovetnik-yandex@yandex.ru:3.1.15.50",
          "sovetnik-yandex@yandex.ru:3.1.12.62",
          "sovetnik-yandex@yandex.ru:3.1.14.66",
          "sovetnik-yandex@yandex.ru:3.1.16.74",
          "sovetnik-yandex@yandex.ru:3.1.10.55",
          "sovetnik-yandex@yandex.ru:3.1.15.62",
          "sovetnik-yandex@yandex.ru:3.1.15.81",
          "sovetnik-yandex@yandex.ru:3.1.17.41",
          "sovetnik-yandex@yandex.ru:3.1.9.27",
          "sovetnik-yandex@yandex.ru:3.1.18.45",
          "sovetnik-yandex@yandex.ru:3.1.12.46",
          "sovetnik-yandex@yandex.ru:3.1.10.93",
          "sovetnik-yandex@yandex.ru:3.1.14.84",
          "sovetnik-yandex@yandex.ru:3.1.18.7",
          "sovetnik-yandex@yandex.ru:3.1.10.12",
          "sovetnik-yandex@yandex.ru:3.1.10.53",
          "sovetnik-yandex@yandex.ru:3.1.15.29",
          "sovetnik-yandex@yandex.ru:3.1.8.74",
          "sovetnik-yandex@yandex.ru:3.1.14.56",
          "sovetnik-yandex@yandex.ru:3.1.12.25",
          "sovetnik-yandex@yandex.ru:3.1.15.52",
          "sovetnik-yandex@yandex.ru:3.1.11.74",
          "sovetnik-yandex@yandex.ru:3.1.13.40",
          "sovetnik-yandex@yandex.ru:3.1.9.85",
          "sovetnik-yandex@yandex.ru:3.1.18.37",
          "sovetnik-yandex@yandex.ru:3.1.12.44",
          "sovetnik-yandex@yandex.ru:3.1.14.53",
          "sovetnik-yandex@yandex.ru:3.1.14.92",
          "sovetnik-yandex@yandex.ru:3.1.10.67",
          "sovetnik-yandex@yandex.ru:3.1.16.21",
          "sovetnik-yandex@yandex.ru:3.1.17.2",
          "sovetnik-yandex@yandex.ru:3.1.14.4",
          "sovetnik-yandex@yandex.ru:3.1.12.5",
          "sovetnik-yandex@yandex.ru:3.1.8.80",
          "sovetnik-yandex@yandex.ru:3.1.16.15",
          "sovetnik-yandex@yandex.ru:3.1.18.20",
          "sovetnik-yandex@yandex.ru:3.1.12.68",
          "sovetnik-yandex@yandex.ru:3.1.9.37",
          "sovetnik-yandex@yandex.ru:3.1.8.60",
          "sovetnik-yandex@yandex.ru:3.1.16.81",
          "sovetnik-yandex@yandex.ru:3.1.14.57",
          "sovetnik-yandex@yandex.ru:3.1.11.62",
          "sovetnik-yandex@yandex.ru:3.1.13.58",
          "sovetnik-yandex@yandex.ru:3.1.18.34",
          "vb@yandex.ru:2.34.6",
          "sovetnik-yandex@yandex.ru:3.1.11.82",
          "sovetnik-yandex@yandex.ru:3.1.13.97",
          "sovetnik-yandex@yandex.ru:3.1.15.79",
          "sovetnik-yandex@yandex.ru:3.1.9.29",
          "sovetnik-yandex@yandex.ru:3.1.11.92",
          "sovetnik-yandex@yandex.ru:3.1.11.93",
          "sovetnik-yandex@yandex.ru:3.1.16.40",
          "sovetnik-yandex@yandex.ru:3.1.9.96",
          "sovetnik-yandex@yandex.ru:3.1.14.83",
          "sovetnik-yandex@yandex.ru:3.1.17.95",
          "sovetnik-yandex@yandex.ru:3.1.15.86",
          "sovetnik-yandex@yandex.ru:3.1.11.2",
          "sovetnik-yandex@yandex.ru:3.1.12.40",
          "sovetnik-yandex@yandex.ru:3.1.17.5",
          "sovetnik-yandex@yandex.ru:3.1.12.18",
          "sovetnik-yandex@yandex.ru:3.1.11.84",
          "sovetnik-yandex@yandex.ru:3.1.15.35",
          "sovetnik-yandex@yandex.ru:3.1.9.66",
          "sovetnik-yandex@yandex.ru:3.1.12.88",
          "sovetnik-yandex@yandex.ru:3.1.14.47",
          "sovetnik-yandex@yandex.ru:3.1.9.77",
          "sovetnik-yandex@yandex.ru:3.1.16.12",
          "sovetnik-yandex@yandex.ru:3.1.9.98",
          "sovetnik-yandex@yandex.ru:3.1.14.87",
          "sovetnik-yandex@yandex.ru:3.1.13.78",
          "sovetnik-yandex@yandex.ru:3.1.14.81",
          "sovetnik-yandex@yandex.ru:3.1.18.40",
          "sovetnik-yandex@yandex.ru:3.1.15.70",
          "sovetnik-yandex@yandex.ru:3.1.9.83",
          "sovetnik-yandex@yandex.ru:3.1.16.63",
          "sovetnik-yandex@yandex.ru:3.1.13.75",
          "sovetnik-yandex@yandex.ru:3.1.8.96",
          "sovetnik-yandex@yandex.ru:3.1.11.83",
          "sovetnik-yandex@yandex.ru:3.1.14.64",
          "sovetnik-yandex@yandex.ru:3.1.16.26",
          "sovetnik-yandex@yandex.ru:3.1.13.61",
          "sovetnik-yandex@yandex.ru:3.1.17.47",
          "sovetnik-yandex@yandex.ru:3.1.15.22",
          "sovetnik-yandex@yandex.ru:3.1.13.53",
          "sovetnik-yandex@yandex.ru:3.1.11.65",
          "sovetnik-yandex@yandex.ru:3.1.9.72",
          "sovetnik-yandex@yandex.ru:3.1.12.71",
          "sovetnik-yandex@yandex.ru:3.1.16.90",
          "sovetnik-yandex@yandex.ru:3.1.18.17",
          "sovetnik-yandex@yandex.ru:3.1.14.41",
          "sovetnik-yandex@yandex.ru:3.1.15.24",
          "sovetnik-yandex@yandex.ru:3.1.12.75",
          "sovetnik-yandex@yandex.ru:3.1.11.33",
          "sovetnik-yandex@yandex.ru:3.1.14.77",
          "sovetnik-yandex@yandex.ru:3.1.16.99",
          "sovetnik-yandex@yandex.ru:3.1.11.0",
          "sovetnik-yandex@yandex.ru:3.1.16.56",
          "sovetnik-yandex@yandex.ru:3.1.13.9",
          "ntp-mail@corp.mail.ru:4.1.56",
          "sovetnik-yandex@yandex.ru:3.1.14.89",
          "sovetnik-yandex@yandex.ru:3.1.12.20",
          "sovetnik-yandex@yandex.ru:3.1.14.17",
          "sovetnik-yandex@yandex.ru:3.1.11.3",
          "sovetnik-yandex@yandex.ru:3.1.14.68",
          "sovetnik-yandex@yandex.ru:3.1.14.24",
          "ntp-mail@corp.mail.ru:5.1.33",
          "sovetnik-yandex@yandex.ru:3.1.13.45",
          "sovetnik-yandex@yandex.ru:3.1.18.48",
          "sovetnik-yandex@yandex.ru:3.1.15.94",
          "sovetnik-yandex@yandex.ru:3.1.14.3",
          "sovetnik-yandex@yandex.ru:3.1.15.78",
          "sovetnik-yandex@yandex.ru:3.1.17.55",
          "sovetnik-yandex@yandex.ru:3.1.16.13",
          "sovetnik-yandex@yandex.ru:3.1.10.18",
          "sovetnik-yandex@yandex.ru:3.1.17.35",
          "sovetnik-yandex@yandex.ru:3.1.12.83",
          "sovetnik-yandex@yandex.ru:3.1.11.1",
          "sovetnik-yandex@yandex.ru:3.1.11.35",
          "sovetnik-yandex@yandex.ru:3.1.11.72",
          "sovetnik-yandex@yandex.ru:3.1.12.19",
          "sovetnik-yandex@yandex.ru:3.1.9.63",
          "sovetnik-yandex@yandex.ru:3.1.13.66",
          "sovetnik-yandex@yandex.ru:3.1.11.16",
          "sovetnik-yandex@yandex.ru:3.1.10.37",
          "sovetnik-yandex@yandex.ru:3.1.10.22",
          "sovetnik-yandex@yandex.ru:3.1.18.9",
          "sovetnik-yandex@yandex.ru:3.1.10.29",
          "sovetnik-yandex@yandex.ru:3.1.18.47",
          "sovetnik-yandex@yandex.ru:3.1.14.69",
          "sovetnik-yandex@yandex.ru:3.1.12.67",
          "sovetnik-yandex@yandex.ru:3.1.12.12",
          "sovetnik-yandex@yandex.ru:3.1.14.22",
          "sovetnik-yandex@yandex.ru:3.1.16.33",
          "sovetnik-yandex@yandex.ru:3.1.14.37",
          "sovetnik-yandex@yandex.ru:3.1.9.46",
          "sovetnik-yandex@yandex.ru:3.1.8.83",
          "sovetnik-yandex@yandex.ru:3.1.17.93"
        ],
        "unblocked": []
      },
      "schema": 1657211803578,
      "key_format": "{guid}:{version}",
      "stash_time": 1657542907993,
      "id": "4d6ec553-5414-4f8a-af4b-ee97b9c6aedf",
      "last_modified": 1657543054340
    },
    {
      "stash": {
        "blocked": [
          "{ffcd00e2-a0c9-45be-ace7-efc1a180958f}:1.5",
          "{ffcd00e2-a0c9-45be-ace7-efc1a180958f}:1.7",
          "{ffcd00e2-a0c9-45be-ace7-efc1a180958f}:1.6",
          "{ffcd00e2-a0c9-45be-ace7-efc1a180958f}:1.8",
          "TwitchExplorer@ext:1.0",
          "{ffcd00e2-a0c9-45be-ace7-efc1a180958f}:1.9",
          "{83e226c8-1c8c-4d45-8301-454daacd1ee1}:1.1.2"
        ],
        "unblocked": []
      },
      "schema": 1656333551217,
      "key_format": "{guid}:{version}",
      "stash_time": 1656527706940,
      "id": "a4525ac3-c65f-4415-ba10-3efdd28db858",
      "last_modified": 1656527861860
    },
    {
      "schema": 1656333549691,
      "attachment": {
        "hash": "34f969c8e082310785ec4262e2d5b58c919d4de856ffc64b3467507f83ac9571",
        "size": 795699,
        "filename": "filter.bin",
        "location": "staging/addons-bloomfilters/67600448-6fc2-4f40-bd4a-8687d731734f.bin",
        "mimetype": "application/octet-stream"
      },
      "key_format": "{guid}:{version}",
      "attachment_type": "bloomfilter-base",
      "generation_time": 1656333307671,
      "id": "07eaa793-a262-487c-ab69-5fd1767116bc",
      "last_modified": 1656333551168
    }
  ],
  "timestamp": 1657737452355
}
