{
  "$schema": "http://json-schema.org/draft-04/schema#",
  "type": "object",
  "properties": {

    "3rdparty": {
      "type": "object",
      "properties": {
        "Extensions" : {
          "type": "object",
          "patternProperties": {
            "^.*$": {
              "type": "JSON"
            }
          }
        }
      }
    },

    "AppAutoUpdate": {
      "type": "boolean"
    },

    "AppUpdateURL": {
      "type": "URL"
    },

    "Authentication": {
      "type": "object",
      "properties": {
        "SPNEGO" : {
          "type": "array",
          "items": {
            "type": "string"
          }
        },
        "Delegated" : {
          "type": "array",
          "items": {
            "type": "string"
          }
        },
        "NTLM" : {
          "type": "array",
          "items": {
            "type": "string"
          }
        },
        "AllowNonFQDN": {
          "type": "object",
          "properties": {
            "SPNEGO": {
              "type": "boolean"
            },

            "NTLM": {
              "type": "boolean"
            }
          }
        },
        "AllowProxies": {
          "type": "object",
          "properties": {
            "SPNEGO": {
              "type": "boolean"
            },

            "NTLM": {
              "type": "boolean"
            }
          }
        },
        "Locked": {
          "type": "boolean"
        },
        "PrivateBrowsing": {
          "type": "boolean"
        }
      }
    },

    "BackgroundAppUpdate": {
      "type": "boolean"
    },

    "BlockAboutAddons": {
      "type": "boolean"
    },

    "BlockAboutConfig": {
      "type": "boolean"
    },

    "BlockAboutProfiles": {
      "type": "boolean"
    },

    "BlockAboutSupport": {
      "type": "boolean"
    },

    "CaptivePortal": {
      "type": "boolean"
    },

    "Certificates": {
      "type": "object",
      "properties": {
        "ImportEnterpriseRoots": {
          "type": "boolean"
        },
        "Install": {
          "type": "array",
          "items": {
            "type": "string"
          }
        }
      }
    },

    "Cookies": {
      "type": "object",
      "properties": {
        "Allow": {
          "type": "array",
          "strict": false,
          "items": {
            "type": "origin"
          }
        },

        "Block": {
          "type": "array",
          "strict": false,
          "items": {
            "type": "origin"
          }
        },

        "Default": {
          "type": "boolean"
        },

        "AcceptThirdParty": {
          "type": "string",
          "enum": ["always", "never", "from-visited"]
        },

        "ExpireAtSessionEnd": {
          "type": "boolean"
        },

        "Locked": {
          "type": "boolean"
        }
      }
    },

    "DefaultDownloadDirectory": {
      "type": "string"
    },

    "DisableAppUpdate": {
      "type": "boolean"
    },

    "DisableBuiltinPDFViewer": {
      "type": "boolean"
    },

    "DisabledCiphers": {
      "type": "object",
      "properties": {
        "TLS_ECDHE_RSA_WITH_AES_128_GCM_SHA256": {
          "type": "boolean"
        },
        "TLS_ECDHE_ECDSA_WITH_AES_128_GCM_SHA256": {
          "type": "boolean"
        },
        "TLS_ECDHE_ECDSA_WITH_CHACHA20_POLY1305_SHA256": {
          "type": "boolean"
        },
        "TLS_ECDHE_RSA_WITH_CHACHA20_POLY1305_SHA256": {
          "type": "boolean"
        },
        "TLS_ECDHE_ECDSA_WITH_AES_256_GCM_SHA384": {
          "type": "boolean"
        },
        "TLS_ECDHE_RSA_WITH_AES_256_GCM_SHA384": {
          "type": "boolean"
        },
        "TLS_ECDHE_RSA_WITH_AES_128_CBC_SHA": {
          "type": "boolean"
        },
        "TLS_ECDHE_ECDSA_WITH_AES_128_CBC_SHA": {
          "type": "boolean"
        },
        "TLS_ECDHE_RSA_WITH_AES_256_CBC_SHA": {
          "type": "boolean"
        },
        "TLS_ECDHE_ECDSA_WITH_AES_256_CBC_SHA": {
          "type": "boolean"
        },
        "TLS_DHE_RSA_WITH_AES_128_CBC_SHA": {
          "type": "boolean"
        },
        "TLS_DHE_RSA_WITH_AES_256_CBC_SHA": {
          "type": "boolean"
        },
        "TLS_RSA_WITH_AES_128_GCM_SHA256": {
          "type": "boolean"
        },
        "TLS_RSA_WITH_AES_256_GCM_SHA384": {
          "type": "boolean"
        },
        "TLS_RSA_WITH_AES_128_CBC_SHA": {
          "type": "boolean"
        },
        "TLS_RSA_WITH_AES_256_CBC_SHA": {
          "type": "boolean"
        },
        "TLS_RSA_WITH_3DES_EDE_CBC_SHA": {
          "type": "boolean"
        }
      }
    },

    "DisableDeveloperTools": {
      "type": "boolean"
    },

    "DisableMasterPasswordCreation": {
      "type": "boolean"
    },

    "DisablePasswordReveal": {
      "type": "boolean"
    },

    "DisableSafeMode": {
      "type": "boolean"
    },

    "DisableSecurityBypass": {
      "type": "object",
      "properties": {
        "InvalidCertificate": {
          "type": "boolean"
        },

        "SafeBrowsing": {
          "type": "boolean"
        }
      }
    },

    "DisableSystemAddonUpdate": {
      "type": "boolean"
    },

    "DisableTelemetry": {
      "type": "boolean"
    },

    "DNSOverHTTPS": {
      "type": "object",
      "properties": {
        "Enabled": {
          "type": "boolean"
        },
        "ProviderURL": {
          "type": "URLorEmpty"
        },
        "ExcludedDomains": {
          "type": "array",
          "items": {
            "type": "string"
          }
        },
        "Locked": {
          "type": "boolean"
        }
      }
    },

    "DownloadDirectory": {
      "type": "string"
    },

    "Extensions": {
      "type": "object",
      "properties": {
        "Install" : {
          "type": "array",
          "items": {
            "type": "string"
          }
        },
        "Uninstall" : {
          "type": "array",
          "items": {
            "type": "string"
          }
        },
        "Locked" : {
          "type": "array",
          "items": {
            "type": "string"
          }
        }
      }
    },

    "ExtensionSettings": {
      "type": "object",
      "properties": {
        "*": {
          "type": "object",
          "properties": {
            "installation_mode": {
              "type": "string",
              "enum": ["allowed", "blocked"]
            },
            "allowed_types": {
              "type": "array",
              "items": {
                "type": "string",
                "enum": ["extension", "dictionary", "locale", "theme"]
              }
            },
            "blocked_install_message": {
              "type": "string"
            },
            "install_sources": {
              "type": "array",
              "items": {
                "type": "string"
              }
            },
            "restricted_domains": {
              "type": "array",
              "items": {
                "type": "string"
              }
            }
          }
        }
      },
      "patternProperties": {
        "^.*$": {
          "type": "object",
          "properties": {
            "installation_mode": {
              "type": "string",
              "enum": ["allowed", "blocked", "force_installed", "normal_installed"]
            },
            "install_url": {
              "type": "string"
            },
            "blocked_install_message": {
              "type": "string"
            },
            "updates_disabled": {
              "type": "boolean"
            }
          }
        }
      }
    },

    "ExtensionUpdate": {
      "type": "boolean"
    },

    "Handlers": {
      "type": "object",
      "patternProperties": {
        "^(mimeTypes|extensions|schemes)$": {
          "type": "object",
          "patternProperties": {
            "^.*$": {
              "type": "object",
              "properties": {
                "action": {
                  "type": "string",
                  "enum": ["saveToDisk", "useHelperApp", "useSystemDefault"]
                },
                "ask": {
                  "type": "boolean"
                },
                "handlers": {
                  "type": "array",
                  "items": {
                    "type": "object",
                    "properties": {
                      "name": {
                        "type": "string"
                      },
                      "path": {
                        "type": "string"
                      },
                      "uriTemplate": {
                        "type": "string"
                      }
                    }
                  }
                }
              }
            }
          }
        }
      }
    },

    "HardwareAcceleration": {
      "type": "boolean"
    },

    "InstallAddonsPermission": {
      "type": "object",
      "properties": {
        "Allow": {
          "type": "array",
          "strict": false,
          "items": {
            "type": "origin"
          }
        },
        "Default": {
          "type": "boolean"
        }
      }
    },

    "ManualAppUpdateOnly": {
        "type": "boolean"
    },

    "NetworkPrediction": {
      "type": "boolean"
    },

    "OfferToSaveLogins": {
      "type": "boolean"
    },

    "OfferToSaveLoginsDefault": {
      "type": "boolean"
    },

    "PasswordManagerEnabled": {
      "type": "boolean"
    },

    "PDFjs": {
      "type": "object",
      "properties": {
        "Enabled": {
          "type": "boolean"
        },
        "EnablePermissions": {
          "type": "boolean"
        }
      }
    },

    "Preferences": {
      "type": "object",
      "patternProperties": {
        "^.*$": {
          "type": ["number", "boolean", "string", "object"],
          "properties": {
            "Value": {
              "type": ["number", "boolean", "string"]
            },
            "Status": {
              "type": "string",
              "enum": ["default", "locked", "user", "clear"]
            }
          }
        }
      }
    },

    "PrimaryPassword": {
      "type": "boolean"
    },

    "PromptForDownloadLocation": {
      "type": "boolean"
    },

    "Proxy": {
      "type": "object",
      "properties": {
        "Mode": {
          "type": "string",
          "enum": ["none", "system", "manual", "autoDetect", "autoConfig"]
        },

        "Locked": {
          "type": "boolean"
        },

        "AutoConfigURL": {
          "type": "URLorEmpty"
        },

        "FTPProxy": {
          "type": "string"
        },

        "HTTPProxy": {
          "type": "string"
        },

        "SSLProxy": {
          "type": "string"
        },

        "SOCKSProxy": {
          "type": "string"
        },

        "SOCKSVersion": {
          "type": "number",
          "enum": [4, 5]
        },

        "UseHTTPProxyForAllProtocols": {
          "type": "boolean"
        },

        "Passthrough": {
          "type": "string"
        },

        "UseProxyForDNS": {
          "type": "boolean"
        },

        "AutoLogin": {
          "type": "boolean"
        }
      }
    },

    "RequestedLocales": {
      "type": ["string", "array"],
      "items": {
        "type": "string"
      }
    },

    "SSLVersionMax": {
      "type": "string",
      "enum": ["tls1", "tls1.1", "tls1.2", "tls1.3"]
    },

    "SSLVersionMin": {
      "type": "string",
      "enum": ["tls1", "tls1.1", "tls1.2", "tls1.3"]
    }
  }
}
